[
  {
    "id": "tutorial-1",
    "step": [
      {
        "type": 0,
        "text": "This is a sample tutorial. Tap on screen to load next step.",
        "position": "Top"
      },
	  {
        "type": 0,
        "text": "You can move the text either to Top...",
        "position": "Top"
      },
	  {
        "type": 0,
        "text": "or bottom.",
        "position": "Bottom"
      },
	  {
        "type": 0,
        "text": "For more detailed instruction, see TutorialManager.cs",
        "position": "Top"
      }
    ],
    "next": "highlight-sample",
	"req":[]
  },
  {
    "id": "highlight-sample",
    "step": [
	  {
        "type": 3,
        "target": "objectTarget",
        "text": "This is highlight example. You can highlight more than one objects too! Just set the TutorialObject.objectId with a same value.",
        "position": "Top"
      }
    ],
    "next": "pointer-click-sample",
	"req":["tutorial-1"]
  },
  {
    "id": "pointer-click-sample",
    "step": [
	  {
        "type": 1,
        "target": "objectTarget"
      }
    ],
    "next": "pointer-drag-sample",
	"req":["tutorial-1"]
  },
  {
    "id": "pointer-drag-sample",
    "step": [
	  {
        "type": 2,
        "target": "objectTarget",
		"target_end": "objectTargetEnd"
      }
    ],
    "next": "",
	"req":["tutorial-1"]
  }
]